@startuml
!include ../../vendor/plantuml-stdlib/c4-plantuml/C4_Context.puml
'LAYOUT_TOP_DOWN()
'LAYOUT_AS_SKETCH()
'LAYOUT_WITH_LEGEND()

title Context diagram for Calculator

Person(User, "User", "A user who wants to use calculator or see history records")

System(calculator_system, "Calculator System", "Set or services to calculate and keep calculation history")

Rel_D(User, calculator_system, "Uses")


@enduml